simulation/qsim/mic1.msim.vcd
$comment
	File created using the following command:
		vcd file mic1.msim.vcd -direction
$end
$date
	Fri Nov 22 13:23:19 2024
$end
$version
	ModelSim Version 10.1d
$end
$timescale
	1ps
$end
$scope module MPC_GENERATOR_vlg_vec_tst $end
$var reg 1 ! CLOCK $end
$var reg 3 " JAM [2:0] $end
$var reg 8 # MBR_IN [7:0] $end
$var reg 1 $ N $end
$var reg 9 % NEXT_ADDRESS [8:0] $end
$var reg 1 & Z $end
$var wire 1 ' MPC [8] $end
$var wire 1 ( MPC [7] $end
$var wire 1 ) MPC [6] $end
$var wire 1 * MPC [5] $end
$var wire 1 + MPC [4] $end
$var wire 1 , MPC [3] $end
$var wire 1 - MPC [2] $end
$var wire 1 . MPC [1] $end
$var wire 1 / MPC [0] $end
$var wire 1 0 sampler $end
$scope module i1 $end
$var wire 1 1 gnd $end
$var wire 1 2 vcc $end
$var wire 1 3 unknown $end
$var tri1 1 4 devclrn $end
$var tri1 1 5 devpor $end
$var tri1 1 6 devoe $end
$var wire 1 7 CLOCK~combout $end
$var wire 1 8 CLOCK~clkctrl_outclk $end
$var wire 1 9 N~combout $end
$var wire 1 : inst8~regout $end
$var wire 1 ; Z~combout $end
$var wire 1 < inst1~feeder_combout $end
$var wire 1 = inst1~regout $end
$var wire 1 > inst6~0_combout $end
$var wire 1 ? inst6~combout $end
$var wire 1 @ NEXT_ADDRESS~combout [8] $end
$var wire 1 A NEXT_ADDRESS~combout [7] $end
$var wire 1 B NEXT_ADDRESS~combout [6] $end
$var wire 1 C NEXT_ADDRESS~combout [5] $end
$var wire 1 D NEXT_ADDRESS~combout [4] $end
$var wire 1 E NEXT_ADDRESS~combout [3] $end
$var wire 1 F NEXT_ADDRESS~combout [2] $end
$var wire 1 G NEXT_ADDRESS~combout [1] $end
$var wire 1 H NEXT_ADDRESS~combout [0] $end
$var wire 1 I MBR_IN~combout [7] $end
$var wire 1 J MBR_IN~combout [6] $end
$var wire 1 K MBR_IN~combout [5] $end
$var wire 1 L MBR_IN~combout [4] $end
$var wire 1 M MBR_IN~combout [3] $end
$var wire 1 N MBR_IN~combout [2] $end
$var wire 1 O MBR_IN~combout [1] $end
$var wire 1 P MBR_IN~combout [0] $end
$var wire 1 Q JAM~combout [2] $end
$var wire 1 R JAM~combout [1] $end
$var wire 1 S JAM~combout [0] $end
$var wire 1 T inst9 [7] $end
$var wire 1 U inst9 [6] $end
$var wire 1 V inst9 [5] $end
$var wire 1 W inst9 [4] $end
$var wire 1 X inst9 [3] $end
$var wire 1 Y inst9 [2] $end
$var wire 1 Z inst9 [1] $end
$var wire 1 [ inst9 [0] $end
$upscope $end
$upscope $end
$enddefinitions $end
#0
$dumpvars
0!
b0 "
b10100101 #
0$
b0 %
0&
x/
x.
x-
x,
x+
x*
x)
x(
x'
x0
01
12
x3
14
15
16
07
x8
09
0:
0;
x<
0=
x>
x?
0H
0G
0F
0E
0D
0C
0B
0A
0@
1P
0O
1N
0M
0L
1K
0J
1I
0S
0R
0Q
x[
xZ
xY
xX
xW
xV
xU
xT
$end
#122
08
#445
0>
#4955
0<
#5051
0?
#5314
0[
#5448
0W
#5453
0Y
#5656
0Z
#5771
0X
#5795
0T
#5994
0U
#6071
0V
#8753
0/
#8881
0+
#9121
0'
#9338
0(
#9482
0*
#9506
0-
#9777
0.
#10084
0,
#11148
0)
#100000
1!
00
#100989
17
#101111
18
#200000
b100 "
0!
10
#200872
1Q
#200989
07
#201111
08
#206191
1Y
#206198
1V
#206338
1[
#206340
1T
#209609
1*
#209777
1/
#209883
1(
#210244
1-
#300000
1!
00
#300989
17
#301111
18
#400000
b100000000 %
0!
10
#400850
1@
#400989
07
#401111
08
#405901
1?
#409971
1'
#500000
1!
00
#500989
17
#501111
18
#600000
b110 "
b100000010 %
b100000011 %
b10 "
b11 %
0!
10
#600850
0@
1G
1H
#600852
1R
#600872
0Q
#600989
07
#601111
08
#605901
0?
#606191
0Y
#606198
0V
#606340
0T
#606506
1Z
#609609
0*
#609883
0(
#609971
0'
#610244
0-
#610627
1.
#680000
1$
00
#680860
19
#700000
1!
0$
10
#700860
09
#700989
17
#701111
18
#702609
1:
#702932
1>
#703599
1?
#707669
1'
#800000
b11 "
b111 %
b1 "
b101 %
b100 %
0!
00
#800842
1F
#800850
1S
0G
0H
#800852
0R
#800989
07
#801111
08
#806164
0[
#806185
0>
#806295
1Y
#806506
0Z
#806852
0?
#809603
0/
#810348
1-
#810627
0.
#810922
0'
#880000
1&
10
#880850
1;
#885805
1<
#900000
1!
0&
00
#900850
0;
#900989
17
#901111
18
#902609
0:
1=
#903054
1>
#903721
1?
#905805
0<
#907791
1'
#999000
b0 "
b101 %
10
#999850
0S
1H
#1000000
0!
00
#1000989
07
#1001111
08
#1005095
0>
#1005164
1[
#1005762
0?
#1008603
1/
#1009832
0'
#1080000
1$
10
#1080860
19
#1100000
1!
0$
00
#1100860
09
#1100989
17
#1101111
18
#1102609
1:
0=
#1200000
b111 %
b110 %
0!
10
#1200850
1G
0H
#1200989
07
#1201111
08
#1206164
0[
#1206506
1Z
#1209603
0/
#1210627
1.
#1280000
1&
00
#1280850
1;
#1285805
1<
#1300000
1!
0&
10
#1300850
0;
#1300989
17
#1301111
18
#1302609
0:
1=
#1305805
0<
